02_数电实验/sy03_04/simulation/qsim/sy03_04.msim.vcd
$comment
	File created using the following command:
		vcd file sy03_04.msim.vcd -direction
$end
$date
	Fri Dec 03 09:29:05 2021
$end
$version
	ModelSim Version 10.1d
$end
$timescale
	1ps
$end
$scope module counter6_vlg_vec_tst $end
$var reg 1 ! cp $end
$var wire 1 " q [3] $end
$var wire 1 # q [2] $end
$var wire 1 $ q [1] $end
$var wire 1 % q [0] $end
$var wire 1 & sampler $end
$scope module i1 $end
$var wire 1 ' gnd $end
$var wire 1 ( vcc $end
$var wire 1 ) unknown $end
$var tri1 1 * devclrn $end
$var tri1 1 + devpor $end
$var tri1 1 , devoe $end
$var wire 1 - q[3]~output_o $end
$var wire 1 . q[2]~output_o $end
$var wire 1 / q[1]~output_o $end
$var wire 1 0 q[0]~output_o $end
$var wire 1 1 cp~input_o $end
$var wire 1 2 inst98651|7~0_combout $end
$var wire 1 3 inst98651|7~feeder_combout $end
$var wire 1 4 inst98651|20~combout $end
$var wire 1 5 inst98651|6~0_combout $end
$var wire 1 6 inst98651|6~q $end
$var wire 1 7 inst98651|5~0_combout $end
$var wire 1 8 inst98651|5~q $end
$var wire 1 9 inst1~combout $end
$var wire 1 : inst1~clkctrl_outclk $end
$var wire 1 ; inst98651|7~q $end
$var wire 1 < inst98651|3~0_combout $end
$var wire 1 = inst98651|3~q $end
$upscope $end
$upscope $end
$enddefinitions $end
#0
$dumpvars
0!
x%
x$
x#
x"
x&
0'
1(
x)
1*
1+
1,
x-
x.
x/
x0
01
x2
x3
x4
x5
06
17
08
x9
x:
0;
x<
0=
$end
#573
0<
#711
09
#762
15
#902
14
#1562
12
#2337
0:
#3088
13
#3212
0/
0$
#3384
00
0%
#3436
0.
0#
#4723
0-
0"
#100000
1!
0&
#100959
11
#200000
0!
1&
#201004
01
#202890
1;
#203737
04
#204540
02
#205943
03
#206437
10
1%
#300000
1!
0&
#300959
11
#400000
0!
1&
#401004
01
#402890
0;
#403792
14
#404452
12
#405516
16
#405978
13
#406228
05
#406274
00
0%
#408843
1/
1$
#500000
1!
0&
#500959
11
#600000
0!
1&
#601004
01
#602890
1;
#603737
04
#604540
02
#605943
03
#606437
10
1%
#700000
1!
0&
#700959
11
#800000
0!
1&
#801004
01
#802890
0;
#803792
14
#804452
12
#805516
06
#805978
13
#806274
00
0%
#806278
15
#807067
18
#807549
07
#808728
0/
0$
#810701
1.
1#
#900000
1!
0&
#900959
11
#1000000
0!
1&
#1001004
01
#1002890
1;
#1003737
04
#1004540
02
#1005943
03
#1006437
10
1%
#1100000
1!
0&
#1100959
11
#1200000
0!
1&
#1201004
01
#1202890
0;
#1203792
14
#1204452
12
#1205516
16
#1205978
13
#1206157
19
#1206228
05
#1206274
00
0%
#1206827
1<
#1207894
1:
#1208843
1/
1$
#1210008
08
06
#1210470
17
#1210581
0<
#1210719
09
#1210770
15
#1212345
0:
#1213220
0/
0$
#1213444
0.
0#
#1300000
1!
0&
#1300959
11
#1400000
0!
1&
#1401004
01
#1402890
1;
#1403737
04
#1404540
02
#1405943
03
#1406437
10
1%
#1500000
1!
0&
#1500959
11
#1600000
0!
1&
#1601004
01
#1602890
0;
#1603792
14
#1604452
12
#1605516
16
#1605978
13
#1606228
05
#1606274
00
0%
#1608843
1/
1$
#1700000
1!
0&
#1700959
11
#1800000
0!
1&
#1801004
01
#1802890
1;
#1803737
04
#1804540
02
#1805943
03
#1806437
10
1%
#1900000
1!
0&
#1900959
11
#2000000
0!
1&
#2001004
01
#2002890
0;
#2003792
14
#2004452
12
#2005516
06
#2005978
13
#2006274
00
0%
#2006278
15
#2007067
18
#2007549
07
#2008728
0/
0$
#2010701
1.
1#
#2100000
1!
0&
#2100959
11
#2200000
0!
1&
#2201004
01
#2202890
1;
#2203737
04
#2204540
02
#2205943
03
#2206437
10
1%
#2300000
1!
0&
#2300959
11
#2400000
0!
1&
#2401004
01
#2402890
0;
#2403792
14
#2404452
12
#2405516
16
#2405978
13
#2406157
19
#2406228
05
#2406274
00
0%
#2406827
1<
#2407894
1:
#2408843
1/
1$
#2410008
08
06
#2410470
17
#2410581
0<
#2410719
09
#2410770
15
#2412345
0:
#2413220
0/
0$
#2413444
0.
0#
#2500000
1!
0&
#2500959
11
#2600000
0!
1&
#2601004
01
#2602890
1;
#2603737
04
#2604540
02
#2605943
03
#2606437
10
1%
#2700000
1!
0&
#2700959
11
#2800000
0!
1&
#2801004
01
#2802890
0;
#2803792
14
#2804452
12
#2805516
16
#2805978
13
#2806228
05
#2806274
00
0%
#2808843
1/
1$
#2900000
1!
0&
#2900959
11
#3000000
0!
1&
#3001004
01
#3002890
1;
#3003737
04
#3004540
02
#3005943
03
#3006437
10
1%
#3100000
1!
0&
#3100959
11
#3200000
0!
1&
#3201004
01
#3202890
0;
#3203792
14
#3204452
12
#3205516
06
#3205978
13
#3206274
00
0%
#3206278
15
#3207067
18
#3207549
07
#3208728
0/
0$
#3210701
1.
1#
#3300000
1!
0&
#3300959
11
#3400000
0!
1&
#3401004
01
#3402890
1;
#3403737
04
#3404540
02
#3405943
03
#3406437
10
1%
#3500000
1!
0&
#3500959
11
#3600000
0!
1&
#3601004
01
#3602890
0;
#3603792
14
#3604452
12
#3605516
16
#3605978
13
#3606157
19
#3606228
05
#3606274
00
0%
#3606827
1<
#3607894
1:
#3608843
1/
1$
#3610008
08
06
#3610470
17
#3610581
0<
#3610719
09
#3610770
15
#3612345
0:
#3613220
0/
0$
#3613444
0.
0#
#3700000
1!
0&
#3700959
11
#3800000
0!
1&
#3801004
01
#3802890
1;
#3803737
04
#3804540
02
#3805943
03
#3806437
10
1%
#3900000
1!
0&
#3900959
11
#4000000
0!
1&
#4001004
01
#4002890
0;
#4003792
14
#4004452
12
#4005516
16
#4005978
13
#4006228
05
#4006274
00
0%
#4008843
1/
1$
#4100000
1!
0&
#4100959
11
#4200000
0!
1&
#4201004
01
#4202890
1;
#4203737
04
#4204540
02
#4205943
03
#4206437
10
1%
#4300000
1!
0&
#4300959
11
#4400000
0!
1&
#4401004
01
#4402890
0;
#4403792
14
#4404452
12
#4405516
06
#4405978
13
#4406274
00
0%
#4406278
15
#4407067
18
#4407549
07
#4408728
0/
0$
#4410701
1.
1#
#4500000
1!
0&
#4500959
11
#4600000
0!
1&
#4601004
01
#4602890
1;
#4603737
04
#4604540
02
#4605943
03
#4606437
10
1%
#4700000
1!
0&
#4700959
11
#4800000
0!
1&
#4801004
01
#4802890
0;
#4803792
14
#4804452
12
#4805516
16
#4805978
13
#4806157
19
#4806228
05
#4806274
00
0%
#4806827
1<
#4807894
1:
#4808843
1/
1$
#4810008
08
06
#4810470
17
#4810581
0<
#4810719
09
#4810770
15
#4812345
0:
#4813220
0/
0$
#4813444
0.
0#
#4900000
1!
0&
#4900959
11
#5000000
0!
1&
#5001004
01
#5002890
1;
#5003737
04
#5004540
02
#5005943
03
#5006437
10
1%
#5100000
1!
0&
#5100959
11
#5200000
0!
1&
#5201004
01
#5202890
0;
#5203792
14
#5204452
12
#5205516
16
#5205978
13
#5206228
05
#5206274
00
0%
#5208843
1/
1$
#5300000
1!
0&
#5300959
11
#5400000
0!
1&
#5401004
01
#5402890
1;
#5403737
04
#5404540
02
#5405943
03
#5406437
10
1%
#5500000
1!
0&
#5500959
11
#5600000
0!
1&
#5601004
01
#5602890
0;
#5603792
14
#5604452
12
#5605516
06
#5605978
13
#5606274
00
0%
#5606278
15
#5607067
18
#5607549
07
#5608728
0/
0$
#5610701
1.
1#
#5700000
1!
0&
#5700959
11
#5800000
0!
1&
#5801004
01
#5802890
1;
#5803737
04
#5804540
02
#5805943
03
#5806437
10
1%
#5900000
1!
0&
#5900959
11
#6000000
0!
1&
#6001004
01
#6002890
0;
#6003792
14
#6004452
12
#6005516
16
#6005978
13
#6006157
19
#6006228
05
#6006274
00
0%
#6006827
1<
#6007894
1:
#6008843
1/
1$
#6010008
08
06
#6010470
17
#6010581
0<
#6010719
09
#6010770
15
#6012345
0:
#6013220
0/
0$
#6013444
0.
0#
#6100000
1!
0&
#6100959
11
#6200000
0!
1&
#6201004
01
#6202890
1;
#6203737
04
#6204540
02
#6205943
03
#6206437
10
1%
#6300000
1!
0&
#6300959
11
#6400000
0!
1&
#6401004
01
#6402890
0;
#6403792
14
#6404452
12
#6405516
16
#6405978
13
#6406228
05
#6406274
00
0%
#6408843
1/
1$
#6500000
1!
0&
#6500959
11
#6600000
0!
1&
#6601004
01
#6602890
1;
#6603737
04
#6604540
02
#6605943
03
#6606437
10
1%
#6700000
1!
0&
#6700959
11
#6800000
0!
1&
#6801004
01
#6802890
0;
#6803792
14
#6804452
12
#6805516
06
#6805978
13
#6806274
00
0%
#6806278
15
#6807067
18
#6807549
07
#6808728
0/
0$
#6810701
1.
1#
#6900000
1!
0&
#6900959
11
#7000000
0!
1&
#7001004
01
#7002890
1;
#7003737
04
#7004540
02
#7005943
03
#7006437
10
1%
#7100000
1!
0&
#7100959
11
#7200000
0!
1&
#7201004
01
#7202890
0;
#7203792
14
#7204452
12
#7205516
16
#7205978
13
#7206157
19
#7206228
05
#7206274
00
0%
#7206827
1<
#7207894
1:
#7208843
1/
1$
#7210008
08
06
#7210470
17
#7210581
0<
#7210719
09
#7210770
15
#7212345
0:
#7213220
0/
0$
#7213444
0.
0#
#7300000
1!
0&
#7300959
11
#7400000
0!
1&
#7401004
01
#7402890
1;
#7403737
04
#7404540
02
#7405943
03
#7406437
10
1%
#7500000
1!
0&
#7500959
11
#7600000
0!
1&
#7601004
01
#7602890
0;
#7603792
14
#7604452
12
#7605516
16
#7605978
13
#7606228
05
#7606274
00
0%
#7608843
1/
1$
#7700000
1!
0&
#7700959
11
#7800000
0!
1&
#7801004
01
#7802890
1;
#7803737
04
#7804540
02
#7805943
03
#7806437
10
1%
#7900000
1!
0&
#7900959
11
#8000000
0!
1&
#8001004
01
#8002890
0;
#8003792
14
#8004452
12
#8005516
06
#8005978
13
#8006274
00
0%
#8006278
15
#8007067
18
#8007549
07
#8008728
0/
0$
#8010701
1.
1#
#8100000
1!
0&
#8100959
11
#8200000
0!
1&
#8201004
01
#8202890
1;
#8203737
04
#8204540
02
#8205943
03
#8206437
10
1%
#8300000
1!
0&
#8300959
11
#8400000
0!
1&
#8401004
01
#8402890
0;
#8403792
14
#8404452
12
#8405516
16
#8405978
13
#8406157
19
#8406228
05
#8406274
00
0%
#8406827
1<
#8407894
1:
#8408843
1/
1$
#8410008
08
06
#8410470
17
#8410581
0<
#8410719
09
#8410770
15
#8412345
0:
#8413220
0/
0$
#8413444
0.
0#
#8500000
1!
0&
#8500959
11
#8600000
0!
1&
#8601004
01
#8602890
1;
#8603737
04
#8604540
02
#8605943
03
#8606437
10
1%
#8700000
1!
0&
#8700959
11
#8800000
0!
1&
#8801004
01
#8802890
0;
#8803792
14
#8804452
12
#8805516
16
#8805978
13
#8806228
05
#8806274
00
0%
#8808843
1/
1$
#8900000
1!
0&
#8900959
11
#9000000
0!
1&
#9001004
01
#9002890
1;
#9003737
04
#9004540
02
#9005943
03
#9006437
10
1%
#9100000
1!
0&
#9100959
11
#9200000
0!
1&
#9201004
01
#9202890
0;
#9203792
14
#9204452
12
#9205516
06
#9205978
13
#9206274
00
0%
#9206278
15
#9207067
18
#9207549
07
#9208728
0/
0$
#9210701
1.
1#
#9300000
1!
0&
#9300959
11
#9400000
0!
1&
#9401004
01
#9402890
1;
#9403737
04
#9404540
02
#9405943
03
#9406437
10
1%
#9500000
1!
0&
#9500959
11
#9600000
0!
1&
#9601004
01
#9602890
0;
#9603792
14
#9604452
12
#9605516
16
#9605978
13
#9606157
19
#9606228
05
#9606274
00
0%
#9606827
1<
#9607894
1:
#9608843
1/
1$
#9610008
08
06
#9610470
17
#9610581
0<
#9610719
09
#9610770
15
#9612345
0:
#9613220
0/
0$
#9613444
0.
0#
#9700000
1!
0&
#9700959
11
#9800000
0!
1&
#9801004
01
#9802890
1;
#9803737
04
#9804540
02
#9805943
03
#9806437
10
1%
#9900000
1!
0&
#9900959
11
