02_数电实验/sy03_m100_04/simulation/qsim/sy03_m100_04.msim.vcd
$comment
	File created using the following command:
		vcd file sy03_m100_04.msim.vcd -direction
$end
$date
	Thu Dec 09 11:44:13 2021
$end
$version
	ModelSim Version 10.1d
$end
$timescale
	1ps
$end
$scope module decoder_vlg_vec_tst $end
$var reg 4 ! t_04 [3:0] $end
$var wire 1 " seg_04 [6] $end
$var wire 1 # seg_04 [5] $end
$var wire 1 $ seg_04 [4] $end
$var wire 1 % seg_04 [3] $end
$var wire 1 & seg_04 [2] $end
$var wire 1 ' seg_04 [1] $end
$var wire 1 ( seg_04 [0] $end
$var wire 1 ) sampler $end
$scope module i1 $end
$var wire 1 * gnd $end
$var wire 1 + vcc $end
$var wire 1 , unknown $end
$var tri1 1 - devclrn $end
$var tri1 1 . devpor $end
$var tri1 1 / devoe $end
$var wire 1 0 seg_04[6]~output_o $end
$var wire 1 1 seg_04[5]~output_o $end
$var wire 1 2 seg_04[4]~output_o $end
$var wire 1 3 seg_04[3]~output_o $end
$var wire 1 4 seg_04[2]~output_o $end
$var wire 1 5 seg_04[1]~output_o $end
$var wire 1 6 seg_04[0]~output_o $end
$var wire 1 7 t_04[1]~input_o $end
$var wire 1 8 t_04[2]~input_o $end
$var wire 1 9 t_04[3]~input_o $end
$var wire 1 : t_04[0]~input_o $end
$var wire 1 ; inst321|72~combout $end
$var wire 1 < inst321|66~0_combout $end
$var wire 1 = inst321|71~combout $end
$var wire 1 > inst321|67~0_combout $end
$var wire 1 ? inst321|70~combout $end
$var wire 1 @ inst321|68~0_combout $end
$var wire 1 A inst321|69~0_combout $end
$upscope $end
$upscope $end
$enddefinitions $end
#0
$dumpvars
b1 !
x(
x'
x&
x%
x$
x#
x"
x)
0*
1+
x,
1-
1.
1/
x0
x1
x2
x3
x4
x5
x6
07
08
09
1:
x;
x<
x=
x>
x?
x@
xA
$end
#4430
1=
#4952
0@
#4976
0>
#4980
0?
#5195
1<
1A
#5197
1;
#7865
02
0$
#8202
03
0%
#8654
15
1'
#8685
14
1&
#8966
06
0(
#9202
00
0"
#10374
01
0#
#2000000
b11 !
b10 !
0)
#2000969
17
#2001004
0:
#2004659
1>
#2004809
0A
#2004889
0;
#2005534
0=
#2005556
1?
#2008100
13
1%
#2008300
16
1(
#2008725
10
1"
#2008751
12
1$
#2009581
04
0&
#4000000
b11 !
1)
#4000959
1:
#4005366
0?
#4005389
1=
#4008824
02
0$
#4009071
14
1&
#6000000
b111 !
b101 !
b100 !
0)
#6000979
18
#6001004
0:
#6001014
07
#6004938
0>
#6005125
1A
#6005139
1;
#6005683
0;
#6005687
0<
#6008164
03
0%
#6008896
06
0(
#6010726
11
1#
#8000000
b101 !
1)
#8000959
1:
#8005363
0A
#8005384
1@
#8005385
1>
#8008826
13
1%
#8008854
16
1(
#8009409
05
0'
#10000000
b111 !
b110 !
0)
#10000969
17
#10001004
0:
#10004648
0>
#10004859
1;
#10004867
0@
#10004870
1<
#10005534
0=
#10005538
0<
#10005539
0;
#10005552
1A
1@
#10005553
1>
#10008751
12
1$
#10009323
06
0(
#12000000
b111 !
1)
#12000959
1:
#12005362
0@
#12005363
0A
0>
#12005387
1<
#12005389
1=
#12005390
1;
#12008589
03
0%
#12008824
02
0$
#12008854
16
1(
#12009064
15
1'
#12009395
00
0"
#12010566
01
0#
#14000000
b1111 !
b1011 !
b1001 !
b1000 !
0)
#14000939
19
#14001004
0:
#14001014
07
#14001024
08
#14004949
1>
#14005125
1@
#14005135
0<
#14005169
0;
#14005530
0@
#14005979
0=
#14008390
13
1%
#14009005
10
1"
#14009196
12
1$
#14010174
11
1#
#16000000
b1001 !
1)
#16000959
1:
#16005363
0>
#16005389
1=
#16008589
03
0%
#16008824
02
0$
